<svg width="8" height="15" viewBox="0 0 8 15" fill="none" xmlns="http://www.w3.org/2000/svg">
<path d="M6.15354 1.74593e-06L7.38428 1.85352e-06C7.62181 1.87429e-06 7.83843 0.139377 7.94058 0.357502C8.04273 0.575626 8.01134 0.833752 7.86058 1.02125L2.64101 7.5L7.86058 13.9794C8.01134 14.1663 8.04211 14.4244 7.94058 14.6431C7.83904 14.8619 7.62181 15 7.38428 15L6.15354 15C5.96893 15 5.79417 14.9156 5.67725 14.7706L0.138919 7.89563C-0.0463069 7.665 -0.0463069 7.33438 0.138919 7.10375L5.67725 0.228751C5.79417 0.0843761 5.96893 1.72979e-06 6.15354 1.74593e-06Z" fill="#7CA1C0"/>
</svg>
